xaringan in Github pages test
…
```r
## Loading packages
library(readr)
library(tidyverse)
library(ggrepel)

## Loading and cleaning data
*read_csv('life-expectancy-vs-gdp-per-capita.csv')
```
]
 
.panel2-chunk_5-auto[

```
# A tibble: 62,893 x 8
   Entity Code   Year `Life expectanc… `GDP per capita` `417485-annotat…
   <chr>  <chr> <int>            <dbl>            <dbl> <chr>           
 1 Abkha… OWID…  2015             NA                 NA <NA>            
 2 Afgha… AFG    1950             27.7             1156 <NA>            
 3 Afgha… AFG    1951             28               1170 <NA>            
 4 Afgha… AFG    1952             28.4             1189 <NA>            
 5 Afgha… AFG    1953             28.9             1240 <NA>            
 6 Afgha… AFG    1954             29.2             1245 <NA>            
 7 Afgha… AFG    1955             29.9             1246 <NA>            
 8 Afgha… AFG    1956             30.4             1278 <NA>            
 9 Afgha… AFG    1957             30.9             1253 <NA>            
10 Afgha… AFG    1958             31.5             1298 <NA>            
# … with 62,883 more rows, and 2 more variables: `Population (historical
#   estimates)` <int>, Continent <chr>
```
…
## Loading and cleaning data
read_csv('life-expectancy-vs-gdp-per-capita.csv') %>%
* rename(year      = Year)
```
]
 
.panel2-chunk_5-auto[

```
# A tibble: 62,893 x 8
   Entity Code   year `Life expectanc… `GDP per capita` `417485-annotat…
   <chr>  <chr> <int>            <dbl>            <dbl> <chr>           
 1 Abkha… OWID…  2015             NA                 NA <NA>            
 2 Afgha… AFG    1950             27.7             1156 <NA>            
 3 Afgha… AFG    1951             28               1170 <NA>            
 4 Afgha… AFG    1952             28.4             1189 <NA>            
 5 Afgha… AFG    1953             28.9             1240 <NA>            
 6 Afgha… AFG    1954             29.2             1245 <NA>            
 7 Afgha… AFG    1955             29.9             1246 <NA>            
 8 Afgha… AFG    1956             30.4             1278 <NA>            
 9 Afgha… AFG    1957             30.9             1253 <NA>            
10 Afgha… AFG    1958             31.5             1298 <NA>            
# … with 62,883 more rows, and 2 more variables: `Population (historical
#   estimates)` <int>, Continent <chr>
```
…
## Loading and cleaning data
read_csv('life-expectancy-vs-gdp-per-capita.csv') %>%
  rename(year      = Year) %>%
* rename(country   = Entity)
```
]
 
.panel2-chunk_5-auto[

```
# A tibble: 62,893 x 8
   country Code   year `Life expectanc… `GDP per capita` `417485-annotat…
   <chr>   <chr> <int>            <dbl>            <dbl> <chr>           
 1 Abkhaz… OWID…  2015             NA                 NA <NA>            
 2 Afghan… AFG    1950             27.7             1156 <NA>            
 3 Afghan… AFG    1951             28               1170 <NA>            
 4 Afghan… AFG    1952             28.4             1189 <NA>            
 5 Afghan… AFG    1953             28.9             1240 <NA>            
 6 Afghan… AFG    1954             29.2             1245 <NA>            
 7 Afghan… AFG    1955             29.9             1246 <NA>            
 8 Afghan… AFG    1956             30.4             1278 <NA>            
 9 Afghan… AFG    1957             30.9             1253 <NA>            
10 Afghan… AFG    1958             31.5             1298 <NA>            
# … with 62,883 more rows, and 2 more variables: `Population (historical
#   estimates)` <int>, Continent <chr>
```
…
## Loading and cleaning data
read_csv('life-expectancy-vs-gdp-per-capita.csv') %>%
  rename(year      = Year) %>%
  rename(country   = Entity) %>%
* rename(code      = Code)
```
]
 
.panel2-chunk_5-auto[

```
# A tibble: 62,893 x 8
   country code   year `Life expectanc… `GDP per capita` `417485-annotat…
   <chr>   <chr> <int>            <dbl>            <dbl> <chr>           
 1 Abkhaz… OWID…  2015             NA                 NA <NA>            
 2 Afghan… AFG    1950             27.7             1156 <NA>            
 3 Afghan… AFG    1951             28               1170 <NA>            
 4 Afghan… AFG    1952             28.4             1189 <NA>            
 5 Afghan… AFG    1953             28.9             1240 <NA>            
 6 Afghan… AFG    1954             29.2             1245 <NA>            
 7 Afghan… AFG    1955             29.9             1246 <NA>            
 8 Afghan… AFG    1956             30.4             1278 <NA>            
 9 Afghan… AFG    1957             30.9             1253 <NA>            
10 Afghan… AFG    1958             31.5             1298 <NA>            
# … with 62,883 more rows, and 2 more variables: `Population (historical
#   estimates)` <int>, Continent <chr>
```
…
## Loading and cleaning data
read_csv('life-expectancy-vs-gdp-per-capita.csv') %>%
  rename(year      = Year) %>%
  rename(country   = Entity) %>%
  rename(code      = Code) %>%
* rename(gdppc     = `GDP per capita`)
```
]
 
.panel2-chunk_5-auto[

```
# A tibble: 62,893 x 8
   country code   year `Life expectanc… gdppc `417485-annotat… `Population (hi…
   <chr>   <chr> <int>            <dbl> <dbl> <chr>                       <int>
 1 Abkhaz… OWID…  2015             NA      NA <NA>                           NA
 2 Afghan… AFG    1950             27.7  1156 <NA>                      7480464
 3 Afghan… AFG    1951             28    1170 <NA>                      7571542
 4 Afghan… AFG    1952             28.4  1189 <NA>                      7667534
 5 Afghan… AFG    1953             28.9  1240 <NA>                      7764549
 6 Afghan… AFG    1954             29.2  1245 <NA>                      7864289
 7 Afghan… AFG    1955             29.9  1246 <NA>                      7971933
 8 Afghan… AFG    1956             30.4  1278 <NA>                      8087730
 9 Afghan… AFG    1957             30.9  1253 <NA>                      8210207
10 Afghan… AFG    1958             31.5  1298 <NA>                      8333827
# … with 62,883 more rows, and 1 more variable: Continent <chr>
```
…
## Loading and cleaning data
read_csv('life-expectancy-vs-gdp-per-capita.csv') %>%
  rename(year      = Year) %>%
  rename(country   = Entity) %>%
  rename(code      = Code) %>%
  rename(gdppc     = `GDP per capita`) %>%
* rename(life_exp  = `Life expectancy at birth (historical)`)
```
]
 
.panel2-chunk_5-auto[

```
# A tibble: 62,893 x 8
   country code   year life_exp gdppc `417485-annotat… `Population (hi…
   <chr>   <chr> <int>    <dbl> <dbl> <chr>                       <int>
 1 Abkhaz… OWID…  2015     NA      NA <NA>                           NA
 2 Afghan… AFG    1950     27.7  1156 <NA>                      7480464
 3 Afghan… AFG    1951     28    1170 <NA>                      7571542
 4 Afghan… AFG    1952     28.4  1189 <NA>                      7667534
 5 Afghan… AFG    1953     28.9  1240 <NA>                      7764549
 6 Afghan… AFG    1954     29.2  1245 <NA>                      7864289
 7 Afghan… AFG    1955     29.9  1246 <NA>                      7971933
 8 Afghan… AFG    1956     30.4  1278 <NA>                      8087730
 9 Afghan… AFG    1957     30.9  1253 <NA>                      8210207
10 Afghan… AFG    1958     31.5  1298 <NA>                      8333827
# … with 62,883 more rows, and 1 more variable: Continent <chr>
```
…
## Loading and cleaning data
read_csv('life-expectancy-vs-gdp-per-capita.csv') %>%
  rename(year      = Year) %>%
  rename(country   = Entity) %>%
  rename(code      = Code) %>%
  rename(gdppc     = `GDP per capita`) %>%
  rename(life_exp  = `Life expectancy at birth (historical)`) %>%
* rename(pop       = `Population (historical estimates)`)
```
]
 
.panel2-chunk_5-auto[

```
# A tibble: 62,893 x 8
   country    code      year life_exp gdppc `417485-annotatio…     pop Continent
   <chr>      <chr>    <int>    <dbl> <dbl> <chr>                <int> <chr>    
 1 Abkhazia   OWID_ABK  2015     NA      NA <NA>                    NA Asia     
 2 Afghanist… AFG       1950     27.7  1156 <NA>               7480464 <NA>     
 3 Afghanist… AFG       1951     28    1170 <NA>               7571542 <NA>     
 4 Afghanist… AFG       1952     28.4  1189 <NA>               7667534 <NA>     
 5 Afghanist… AFG       1953     28.9  1240 <NA>               7764549 <NA>     
 6 Afghanist… AFG       1954     29.2  1245 <NA>               7864289 <NA>     
 7 Afghanist… AFG       1955     29.9  1246 <NA>               7971933 <NA>     
 8 Afghanist… AFG       1956     30.4  1278 <NA>               8087730 <NA>     
 9 Afghanist… AFG       1957     30.9  1253 <NA>               8210207 <NA>     
10 Afghanist… AFG       1958     31.5  1298 <NA>               8333827 <NA>     
# … with 62,883 more rows
```
…
.panel2-chunk_5-auto[

```
# A tibble: 62,893 x 8
   country    code      year life_exp gdppc `417485-annotatio…     pop continent
   <chr>      <chr>    <int>    <dbl> <dbl> <chr>                <int> <chr>    
 1 Abkhazia   OWID_ABK  2015     NA      NA <NA>                    NA Asia     
 2 Afghanist… AFG       1950     27.7  1156 <NA>               7480464 <NA>     
 3 Afghanist… AFG       1951     28    1170 <NA>               7571542 <NA>     
 4 Afghanist… AFG       1952     28.4  1189 <NA>               7667534 <NA>     
 5 Afghanist… AFG       1953     28.9  1240 <NA>               7764549 <NA>     
 6 Afghanist… AFG       1954     29.2  1245 <NA>               7864289 <NA>     
 7 Afghanist… AFG       1955     29.9  1246 <NA>               7971933 <NA>     
 8 Afghanist… AFG       1956     30.4  1278 <NA>               8087730 <NA>     
 9 Afghanist… AFG       1957     30.9  1253 <NA>               8210207 <NA>     
10 Afghanist… AFG       1958     31.5  1298 <NA>               8333827 <NA>     
# … with 62,883 more rows
```
…
.panel2-chunk_5-auto[

```
# A tibble: 62,893 x 6
   country     continent  year gdppc life_exp     pop
   <chr>       <chr>     <int> <dbl>    <dbl>   <int>
 1 Abkhazia    Asia       2015    NA     NA        NA
 2 Afghanistan <NA>       1950  1156     27.7 7480464
 3 Afghanistan <NA>       1951  1170     28   7571542
 4 Afghanistan <NA>       1952  1189     28.4 7667534
 5 Afghanistan <NA>       1953  1240     28.9 7764549
 6 Afghanistan <NA>       1954  1245     29.2 7864289
 7 Afghanistan <NA>       1955  1246     29.9 7971933
 8 Afghanistan <NA>       1956  1278     30.4 8087730
 9 Afghanistan <NA>       1957  1253     30.9 8210207
10 Afghanistan <NA>       1958  1298     31.5 8333827
# … with 62,883 more rows
```
…
.panel2-chunk_5-auto[

```
# A tibble: 314 x 6
   country               continent  year gdppc life_exp        pop
   <chr>                 <chr>     <int> <dbl>    <dbl>      <int>
 1 Abkhazia              Asia       2015    NA     NA           NA
 2 Afghanistan           Asia       2015  1928     62.7   33753500
 3 Africa                <NA>       2015    NA     61.1 1201108186
 4 Africa (UN)           <NA>       2015    NA     NA   1201107968
 5 Akrotiri and Dhekelia Asia       2015    NA     NA           NA
 6 Aland Islands         Europe     2015    NA     NA           NA
 7 Albania               Europe     2015 10032     78.6    2882482
 8 Algeria               Africa     2015 14004     75.6   39543148
 9 American Samoa        Oceania    2015    NA     72.5      51391
10 Americas              <NA>       2015    NA     76.3         NA
# … with 304 more rows
```
…
.panel2-chunk_5-auto[

```
# A tibble: 250 x 6
   country             continent      year gdppc life_exp        pop
   <chr>               <chr>         <int> <dbl>    <dbl>      <int>
 1 Afghanistan         Asia           2015  1928     62.7   33753500
 2 Africa              <NA>           2015    NA     61.1 1201108186
 3 Africa (UN)         <NA>           2015    NA     NA   1201107968
 4 Albania             Europe         2015 10032     78.6    2882482
 5 Algeria             Africa         2015 14004     75.6   39543148
 6 American Samoa      Oceania        2015    NA     72.5      51391
 7 Andorra             Europe         2015    NA     83        71766
 8 Angola              Africa         2015  8689     60.7   28127724
 9 Anguilla            North America  2015    NA     77.1      14554
10 Antigua and Barbuda North America  2015    NA     77.9      89958
# … with 240 more rows
```
…
.panel2-chunk_5-auto[

```
# A tibble: 165 x 6
   country     continent      year gdppc life_exp      pop
   <chr>       <chr>         <int> <dbl>    <dbl>    <int>
 1 Afghanistan Asia           2015  1928     62.7 33753500
 2 Albania     Europe         2015 10032     78.6  2882482
 3 Algeria     Africa         2015 14004     75.6 39543148
 4 Angola      Africa         2015  8689     60.7 28127724
 5 Argentina   South America  2015 19502     76.8 43257064
 6 Armenia     Asia           2015 10042     74.4  2878598
 7 Australia   Oceania        2015 48357     82.7 23820240
 8 Austria     Europe         2015 41294     81.2  8642422
 9 Azerbaijan  Asia           2015 17460     71.5  9863485
10 Bahrain     Asia           2015 40483     79.4  1362157
# … with 155 more rows
```
…
